<svg xmlns="http://www.w3.org/2000/svg" width="17" height="15" viewBox="0 0 17 15">
  <metadata><?xpacket begin="﻿" id="W5M0MpCehiHzreSzNTczkc9d"?>
<x:xmpmeta xmlns:x="adobe:ns:meta/" x:xmptk="Adobe XMP Core 5.6-c140 79.160451, 2017/05/06-01:08:21        ">
   <rdf:RDF xmlns:rdf="http://www.w3.org/1999/02/22-rdf-syntax-ns#">
      <rdf:Description rdf:about=""/>
   </rdf:RDF>
</x:xmpmeta>

<?xpacket end="w"?></metadata>
<defs>
    <style>
      .cls-1 {
        fill: none;
        stroke: #ffffff;
        stroke-width: 2px;
        fill-rule: evenodd;
      }
    </style>
  </defs>
  <path class="cls-1" d="M1157.5,15.766c-1.92-2.734-7.44-2.237-7.5,2.613-0.04,2.954,2.73,4.712,4.39,6.027,1.63,1.288,3.06,2.549,3.12,2.593,0.07-.038,1.63-1.356,3.1-2.626,1.61-1.4,4.36-3.072,4.39-6.027C1165.06,13.265,1158.87,12.972,1157.5,15.766Z" transform="translate(-1149 -13)"/>
</svg>
