<svg xmlns="http://www.w3.org/2000/svg" width="16.06" height="12" viewBox="0 0 16.06 12">
  <metadata><?xpacket begin="﻿" id="W5M0MpCehiHzreSzNTczkc9d"?>
<x:xmpmeta xmlns:x="adobe:ns:meta/" x:xmptk="Adobe XMP Core 5.6-c140 79.160451, 2017/05/06-01:08:21        ">
   <rdf:RDF xmlns:rdf="http://www.w3.org/1999/02/22-rdf-syntax-ns#">
      <rdf:Description rdf:about=""/>
   </rdf:RDF>
</x:xmpmeta>


<?xpacket end="w"?></metadata>
<defs>
    <style>
      .cls-1 {
        fill: none;
        stroke: #ffffff;
        stroke-width: 2px;
        fill-rule: evenodd;
      }
    </style>
  </defs>
  <path id="Rounded_Rectangle_7_copy" data-name="Rounded Rectangle 7 copy" class="cls-1" d="M1287.49,18H1298a2,2,0,0,1,2,2l-1,2a2,2,0,0,1-2,2h-4a2,2,0,0,1-2-2s-0.14-.767-1.86-6.223a5.1,5.1,0,0,0-1.72-2.52A6.371,6.371,0,0,0,1284,12" transform="translate(-1284.94 -13)"/>
</svg>
